CellCountModeling
…
model_posterior$summary()
#> # A tibble: 6,029 × 10
#>    variable       mean   median      sd     mad       q5      q95  rhat ess_bulk
#>    <chr>         <dbl>    <dbl>   <dbl>   <dbl>    <dbl>    <dbl> <dbl>    <dbl>
#>  1 lp__       -1.19e+4 -1.19e+4 4.31e+1 4.03e+1 -1.19e+4 -1.18e+4 1.01      190.
#>  2 bi          2.00e-1  1.99e-1 5.76e-3 5.64e-3  1.91e-1  2.10e-1 1.01      378.
#>  3 db          8.06e-1  8.06e-1 6.83e-3 7.12e-3  7.95e-1  8.17e-1 0.998     356.
#>  4 b50        -5.02e+0 -5.02e+0 3.02e-2 2.92e-2 -5.07e+0 -4.98e+0 1.00      389.
#>  5 bh          1.87e+0  1.86e+0 1.16e-1 1.03e-1  1.70e+0  2.09e+0 1.01      404.
#>  6 d0          1.38e-2  1.34e-2 6.53e-3 7.25e-3  3.00e-3  2.44e-2 1.00      315.
#>  7 dd          4.78e-1  4.78e-1 8.37e-3 8.39e-3  4.65e-1  4.92e-1 0.999     392.
#>  8 d50         1.01e+0  1.01e+0 9.62e-2 1.02e-1  8.50e-1  1.16e+0 0.999     322.
#>  9 dh          1.97e+0  1.96e+0 1.78e-1 1.66e-1  1.72e+0  2.32e+0 0.998     365.
#> 10 count_err…  8.50e-3  1.67e-2 2.86e-1 3.60e-1 -4.40e-1  4.46e-1 1.02      601.
#> # ℹ 6,019 more rows
#> # ℹ 1 more variable: ess_tail <dbl>
…
